…
```
## -- Conflicts ---------------------------------- tidyverse_conflicts() --
## x dplyr::filter() masks stats::filter()
## x dplyr::lag()    masks stats::lag()
```

```r
mpg
```

```
## # A tibble: 234 x 11
##    manufacturer model    displ  year   cyl trans   drv     cty   hwy fl   
##    <chr>        <chr>    <dbl> <int> <int> <chr>   <chr> <int> <int> <chr>
##  1 audi         a4         1.8  1999     4 auto(l~ f        18    29 p    
##  2 audi         a4         1.8  1999     4 manual~ f        21    29 p    
##  3 audi         a4         2    2008     4 manual~ f        20    31 p    
##  4 audi         a4         2    2008     4 auto(a~ f        21    30 p    
##  5 audi         a4         2.8  1999     6 auto(l~ f        16    26 p    
##  6 audi         a4         2.8  1999     6 manual~ f        18    26 p    
##  7 audi         a4         3.1  2008     6 auto(a~ f        18    27 p    
##  8 audi         a4 quat~   1.8  1999     4 manual~ 4        18    26 p    
##  9 audi         a4 quat~   1.8  1999     4 auto(l~ 4        16    25 p    
## 10 audi         a4 quat~   2    2008     4 manual~ 4        20    28 p    
## # ... with 224 more rows, and 1 more variable: class <chr>
```
…
```r
ncol(mpg)
```

```
## [1] 11
```

```r
?mpg
mpg
```

```
## # A tibble: 234 x 11
##    manufacturer model    displ  year   cyl trans   drv     cty   hwy fl   
##    <chr>        <chr>    <dbl> <int> <int> <chr>   <chr> <int> <int> <chr>
##  1 audi         a4         1.8  1999     4 auto(l~ f        18    29 p    
##  2 audi         a4         1.8  1999     4 manual~ f        21    29 p    
##  3 audi         a4         2    2008     4 manual~ f        20    31 p    
##  4 audi         a4         2    2008     4 auto(a~ f        21    30 p    
##  5 audi         a4         2.8  1999     6 auto(l~ f        16    26 p    
##  6 audi         a4         2.8  1999     6 manual~ f        18    26 p    
##  7 audi         a4         3.1  2008     6 auto(a~ f        18    27 p    
##  8 audi         a4 quat~   1.8  1999     4 manual~ 4        18    26 p    
##  9 audi         a4 quat~   1.8  1999     4 auto(l~ 4        16    25 p    
## 10 audi         a4 quat~   2    2008     4 manual~ 4        20    28 p    
## # ... with 224 more rows, and 1 more variable: class <chr>
```
…
```
## Error in contrib.url(repos, "source"): trying to use CRAN without setting a mirror
```

```r
library(nycflights13)
library(tidyverse)
nycflights13::flights
```

```
## # A tibble: 336,776 x 19
##     year month   day dep_time sched_dep_time dep_delay arr_time
##    <int> <int> <int>    <int>          <int>     <dbl>    <int>
##  1  2013     1     1      517            515         2      830
##  2  2013     1     1      533            529         4      850
##  3  2013     1     1      542            540         2      923
##  4  2013     1     1      544            545        -1     1004
##  5  2013     1     1      554            600        -6      812
##  6  2013     1     1      554            558        -4      740
##  7  2013     1     1      555            600        -5      913
##  8  2013     1     1      557            600        -3      709
##  9  2013     1     1      557            600        -3      838
## 10  2013     1     1      558            600        -2      753
## # ... with 336,766 more rows, and 12 more variables: sched_arr_time <int>,
## #   arr_delay <dbl>, carrier <chr>, flight <int>, tailnum <chr>,
## #   origin <chr>, dest <chr>, air_time <dbl>, distance <dbl>, hour <dbl>,
## #   minute <dbl>, time_hour <dttm>
```

```r
filter(flights, month == 1, day == 1)
```

```
## # A tibble: 842 x 19
##     year month   day dep_time sched_dep_time dep_delay arr_time
##    <int> <int> <int>    <int>          <int>     <dbl>    <int>
##  1  2013     1     1      517            515         2      830
##  2  2013     1     1      533            529         4      850
##  3  2013     1     1      542            540         2      923
##  4  2013     1     1      544            545        -1     1004
##  5  2013     1     1      554            600        -6      812
##  6  2013     1     1      554            558        -4      740
##  7  2013     1     1      555            600        -5      913
##  8  2013     1     1      557            600        -3      709
##  9  2013     1     1      557            600        -3      838
## 10  2013     1     1      558            600        -2      753
## # ... with 832 more rows, and 12 more variables: sched_arr_time <int>,
## #   arr_delay <dbl>, carrier <chr>, flight <int>, tailnum <chr>,
## #   origin <chr>, dest <chr>, air_time <dbl>, distance <dbl>, hour <dbl>,
## #   minute <dbl>, time_hour <dttm>
```

```r
jan1 <- filter(flights, month == 1, day == 1)
```
#5.2.4 Excercise#

```r
filter(flights, arr_delay >= 120, dep_delay >= 120)
```

```
## # A tibble: 8,482 x 19
##     year month   day dep_time sched_dep_time dep_delay arr_time
##    <int> <int> <int>    <int>          <int>     <dbl>    <int>
##  1  2013     1     1      848           1835       853     1001
##  2  2013     1     1      957            733       144     1056
##  3  2013     1     1     1114            900       134     1447
##  4  2013     1     1     1815           1325       290     2120
##  5  2013     1     1     1842           1422       260     1958
##  6  2013     1     1     1856           1645       131     2212
##  7  2013     1     1     1934           1725       129     2126
##  8  2013     1     1     1938           1703       155     2109
##  9  2013     1     1     1942           1705       157     2124
## 10  2013     1     1     2006           1630       216     2230
## # ... with 8,472 more rows, and 12 more variables: sched_arr_time <int>,
## #   arr_delay <dbl>, carrier <chr>, flight <int>, tailnum <chr>,
## #   origin <chr>, dest <chr>, air_time <dbl>, distance <dbl>, hour <dbl>,
## #   minute <dbl>, time_hour <dttm>
```
…
